Orthogroup	albicaulis_after_clustal_round3	armandii_after_clustal_round3	at_nbarc	ayacahuite_after_clustal_round3	bhutanica_after_clustal_round3	cembra_after_clustal_round3	chiapensis_after_clustal_round3	dabeshanensis_after_clustal_round3	dalatensis_after_clustal_round3	fenzeliana_after_clustal_round3	flexilis_after_clustal_round3	koraiensis_after_clustal_round3	kwangtungensis_after_clustal_round3	lambertiana_after_clustal_round3	monticola_after_clustal_round3	morrisonicola_after_clustal_round3	parviflora_after_clustal_round3	peuce_after_clustal_round3	ps_nbarc	pumila_after_clustal_round3	sibirica_after_clustal_round3	strobiformis_after_clustal_round3	strobus_after_clustal_round3	wallichiana_after_clustal_round3	wangii_after_clustal_round3
OG0000025										fenzeliana_spades_SRR13823578velvLoc1537ct1_97-357															
OG0000026													kwangtungensis_spades_SRR13823512velvLoc3529ct1_226-536												
OG0000027													kwangtungensis_spades_SRR13823512velvLoc4910ct1_223-529												
OG0000028													kwangtungensis_spades_SRR13823646velvLoc8919ct1_179-451												
OG0000029																					sibirica_spades_SRR13823431velvLoc7586ct1_261-518				
